…
    ##            [,1]        [,2]       [,3]       [,4]
    ## [1,] -0.3218798 -0.08661629 -0.3816623 -0.1730324
    ## [2,] -0.2149084 -0.14837835 -0.3080815 -0.1697552
    ## [3,] -0.2454120 -0.06011190 -0.7612364 -0.1560388
    ## [4,] -0.2066253 -0.09150894 -0.2194261 -0.2343866

And a tibble containing, for each community, the observed vs. fitted values:

``` r
out$results
```

    ## # A tibble: 289 x 4
    ##    community species observed predicted
    ##    <chr>     <chr>      <dbl>     <dbl>
    ##  1 as        as          1.47      3.11
    ##  2 as        as          1.80      3.11
    ##  3 as        as          1.90      3.11
    ##  4 as        as          2.06      3.11
    ##  5 as        as          2.27      3.11
    ##  6 as        as          2.31      3.11
    ##  7 as        as          2.36      3.11
    ##  8 as        as          2.46      3.11
    ##  9 as        as          2.81      3.11
    ## 10 as        as          3.18      3.11
    ## # ... with 279 more rows
…
