…
    ##            [,1]        [,2]       [,3]       [,4]
    ## [1,] -0.4376353 -0.05445627 -0.0721136 -0.2098196
    ## [2,] -0.2788497 -0.15297676 -0.4207948 -0.1837540
    ## [3,] -0.2824353 -0.07335484 -0.8577843 -0.1847625
    ## [4,] -0.3003352 -0.04304214  0.0633261 -0.2947655

And a tibble containing, for each community, the observed vs. fitted values:

``` r
out$results
```

    ## # A tibble: 289 x 4
    ##    community species observed predicted
    ##    <chr>     <chr>      <dbl>     <dbl>
    ##  1 as        as          1.47      2.29
    ##  2 as        as          1.80      2.29
    ##  3 as        as          1.90      2.29
    ##  4 as        as          2.06      2.29
    ##  5 as        as          2.27      2.29
    ##  6 as        as          2.31      2.29
    ##  7 as        as          2.36      2.29
    ##  8 as        as          2.46      2.29
    ##  9 as        as          2.81      2.29
    ## 10 as        as          3.18      2.29
    ## # ... with 279 more rows
…
